[
	{
		"name" : "dev",
		"type": "mysql",
		"host": "localhost",
		"port": 3306,
		"username": "root",
		"password": "",
		"database": "assignment",
		"synchronize": true,
		"logging": false,
		"entities": [
			"src/entity/**/*.ts"
		],
		"seeds": ["src/seeds/**/*.ts"],
		"factories": ["src/factories/**/*.ts"]
	},
	{
		"name": "test",
		"type": "mysql",
		"host": "localhost",
		"port": 3306,
		"username": "root",
		"password": "",
		"database": "test_assignment",
		"synchronize": false,
		"logging": false,
 		"entities": [
			"src/entity/**/*.ts"
		],
		"seeds": ["src/seeds/**/*.ts"],
		"factories": ["src/factories/**/*.ts"]
	}
]